<svg xmlns="http://www.w3.org/2000/svg" width="20.449" height="34.663" viewBox="0 0 20.449 34.663">
  <g id="_3-day-course" data-name="3-day-course" transform="translate(-73.142 -0.001)">
    <g id="Group_41" data-name="Group 41" transform="translate(73.142 0.001)">
      <path id="Path_231" data-name="Path 231" d="M91.766,32.543c2.419-4.617,1.766-10.873,1.683-11.559a3.675,3.675,0,0,0-2.759-4.251c.046-1.215.67-5.83,1.046-8.6.4-2.984.5-3.76.49-3.936a2.143,2.143,0,0,0-.947-1.834,2.292,2.292,0,0,0-2.148.188c-.417.214-.6,1.041-1.272,4.8-.368,2.069-1.218,6.823-1.834,7.646-.421-1.174-.464-6.83-.485-9.593a36.806,36.806,0,0,0-.114-3.918A2.052,2.052,0,0,0,83.7.012a1.522,1.522,0,0,0-1.558.867c-.57.544-.656,2.478-.728,7.081-.034,2.2-.106,6.729-.523,7.245-.349-.192-1-1.983-2.136-9.174a14.217,14.217,0,0,0-.564-2.912,2.652,2.652,0,0,0-2.1-1.851l-.065,0c-.641.039-1.448.571-1.654,2.892.679,8.942,1.337,14.02,1.472,15.016a9.108,9.108,0,0,1-1.115,1.085c-.021.018-.034.027-.048.042-2.29,2.531-1.348,4.287-1.307,4.36a68.658,68.658,0,0,0,5.679,7.776,1.834,1.834,0,0,1,.777,1.158.486.486,0,0,1-.126.348l-.075.09.535.61,11.032.017a.1.1,0,0,0-.041-.064l.012,0Z" transform="translate(-73.142 -0.001)" fill="#e22248"/>
    </g>
  </g>
</svg>
