<?xml version="1.0" encoding="utf-8"?>
<!-- Generator: Adobe Illustrator 19.0.0, SVG Export Plug-In . SVG Version: 6.00 Build 0)  -->
<svg version="1.1" id="Layer_1" xmlns="http://www.w3.org/2000/svg" xmlns:xlink="http://www.w3.org/1999/xlink" x="0px" y="0px"
	 viewBox="150.6 266 461.4 261" style="enable-background:new 150.6 266 461.4 261;" xml:space="preserve">
<style type="text/css">
	.st0{fill:#5D5E5E;}
</style>
<path class="st0" d="M465.9,471.5c-45.6,22.5-96.3,33.9-146.9,32.3c-53.4-1.7-105.8-6.7-156.5,15.9c-4.9,2.1-8.8,4.6-11.9,7.3H612
	V373.6C559.8,400.3,518.6,445.3,465.9,471.5z"/>
</svg>
