<svg xmlns="http://www.w3.org/2000/svg" width="13.279" height="7.57" viewBox="0 0 13.279 7.57">
  <g id="up" transform="translate(0 104.708) rotate(-90)">
    <path id="Path_2" data-name="Path 2" d="M104.436,7.3l-5.71,5.71a.93.93,0,1,1-1.315-1.315l5.052-5.052L97.411,1.587A.93.93,0,0,1,98.726.272l5.71,5.71a.93.93,0,0,1,0,1.315Z" transform="translate(0 0)" fill="#1976d2"/>
  </g>
</svg>
